…
    #plotting the distribution of maple trees (Acer genus) across Vancouver communities
    #we need to first group the data by neighbourhood
    #then filter to only select and count tees from the Acer genus
    acer_count <- vancouver_trees %>%
                  group_by(neighbourhood_name) %>%
                  filter(genus_name == "ACER") %>%
                  summarise(total_trees = n()) 

    print(acer_count)

    ## # A tibble: 22 × 2
    ##    neighbourhood_name       total_trees
    ##    <chr>                          <int>
    ##  1 ARBUTUS-RIDGE                    867
    ##  2 DOWNTOWN                        2043
    ##  3 DUNBAR-SOUTHLANDS               2464
    ##  4 FAIRVIEW                        1403
    ##  5 GRANDVIEW-WOODLAND              1829
    ##  6 HASTINGS-SUNRISE                2508
    ##  7 KENSINGTON-CEDAR COTTAGE        2438
    ##  8 KERRISDALE                      1900
    ##  9 KILLARNEY                       1357
    ## 10 KITSILANO                       2211
    ## # ℹ 12 more rows
…
    ## `summarise()` has grouped output by 'neighbourhood_name'. You can override
    ## using the `.groups` argument.

    print(species_by_neighborhood)

    ## # A tibble: 420 × 3
    ## # Groups:   neighbourhood_name [22]
    ##    neighbourhood_name       species_name count
    ##    <chr>                    <chr>        <int>
    ##  1 KITSILANO                PLATANOIDES   1188
    ##  2 DUNBAR-SOUTHLANDS        PLATANOIDES   1165
    ##  3 SHAUGHNESSY              PLATANOIDES   1139
    ##  4 KERRISDALE               PLATANOIDES   1067
    ##  5 DOWNTOWN                 RUBRUM        1019
    ##  6 HASTINGS-SUNRISE         PLATANOIDES    821
    ##  7 WEST POINT GREY          PLATANOIDES    700
    ##  8 KENSINGTON-CEDAR COTTAGE PLATANOIDES    676
    ##  9 RENFREW-COLLINGWOOD      PLATANOIDES    628
    ## 10 SUNSET                   PLATANOIDES    623
    ## # ℹ 410 more rows
…
